{
  "parameters": {
    "db": {
    },
    "items": [
      {
        "name": "name",
        "dbName": "name",
        "type": "VARCHAR(256)",
        "nullable": false,
        "size": ""
      },
      {
        "name": "email",
        "dbName": "email",
        "type": "VARCHAR(256)",
        "nullable": false,
        "size": ""
      },
      {
        "name": "address",
        "dbName": "address",
        "type": "VARCHAR(256)",
        "nullable": false,
        "size": ""
      },
      {
        "name": "company",
        "dbName": "company",
        "type": "VARCHAR(256)",
        "nullable": false,
        "size": ""
      }
    ],
    "dbName": "exasol_test_incremental_upload",
    "incremental": true,
    "caseSensitive": "Case sensitive",
    "primaryKey" : ["name"]

  }
}

